{
  "project_info": {
    "project_number": "1042672712227",
    "firebase_url": "https://aflam-e9730.firebaseio.com",
    "project_id": "aflam-e9730",
    "storage_bucket": "aflam-e9730.appspot.com"
  },
  "client": [
    {
      "client_info": {
        "mobilesdk_app_id": "1:1042672712227:android:c97444238f4c792c",
        "android_client_info": {
          "package_name": "us.quantum42.aflam"
        }
      },
      "oauth_client": [
        {
          "client_id": "1042672712227-j39803k41tfthh4ker7nhramvtnke4dn.apps.googleusercontent.com",
          "client_type": 3
        }
      ],
      "api_key": [
        {
          "current_key": "AIzaSyCb10Lc187lkPBmLYRKViJAj4RKWeO-6uY"
        }
      ],
      "services": {
        "analytics_service": {
          "status": 1
        },
        "appinvite_service": {
          "status": 1,
          "other_platform_oauth_client": []
        },
        "ads_service": {
          "status": 2
        }
      }
    }
  ],
  "configuration_version": "1"
}